<?xml version="1.0" encoding="utf-8"?>
<!-- Generator: Adobe Illustrator 18.0.0, SVG Export Plug-In . SVG Version: 6.00 Build 0)  -->
<!DOCTYPE svg PUBLIC "-//W3C//DTD SVG 1.1//EN" "http://www.w3.org/Graphics/SVG/1.1/DTD/svg11.dtd">
<svg version="1.1" id="Layer_1" xmlns="http://www.w3.org/2000/svg" xmlns:xlink="http://www.w3.org/1999/xlink" x="0px" y="0px"
	 viewBox="0 0 31 31" enable-background="new 0 0 31 31" xml:space="preserve">
<path d="M15.4,2.6L15.4,2.6L15.4,2.6L15.4,2.6L15.4,2.6l-9,20.1l3.4-0.1l1.8-4.5h3.8l0,0l4.2,0l2,4.6l3.2,0.1L15.4,2.6z M15.4,9.1
	l3,6.4h-2.9l-0.1,0h-2.7L15.4,9.1z M15.5,0L0.9,5.1l2.3,19.1L15.5,31l12.4-6.9L30.1,5L15.5,0z M26.5,23.2l-11.1,6.1l0,0l0,0
	L4.5,23.3l-2-17.1l12.9-4.6l0,0l0,0l13.3,4.5L26.5,23.2z"/>
</svg>
