<?xml version="1.0" encoding="utf-8"?>
<!-- Generator: Adobe Illustrator 18.0.0, SVG Export Plug-In . SVG Version: 6.00 Build 0)  -->
<!DOCTYPE svg PUBLIC "-//W3C//DTD SVG 1.1//EN" "http://www.w3.org/Graphics/SVG/1.1/DTD/svg11.dtd">
<svg version="1.1" id="Layer_1" xmlns="http://www.w3.org/2000/svg" xmlns:xlink="http://www.w3.org/1999/xlink" x="0px" y="0px"
	 viewBox="0 0 31 31" enable-background="new 0 0 31 31" xml:space="preserve">
<path d="M19.8,8.7c-1.5-4.1,2.8-8.5,6.3-8.7c2.1,1.1,3.9,3.9,3.8,7.7c-0.3,4.7-3.7,8.8-7.4,12.5C22.4,15.7,21.4,12.8,19.8,8.7
	L19.8,8.7z M11.5,31c7.8-0.9,10.3-6.8,10.5-10c-1.5-2.2-4.2-3.6-5.2-4c-0.5,0.9-1.2,2-2.1,3.1C12.9,22.5,10.9,26.4,11.5,31L11.5,31z
	 M8.6,13.5c2.6,0.8,4.5,1.3,6.5,2c2.9,1.1,5.2,2.4,7,4.7c-0.3-4-2-8.6-4.6-12.2C13.7,2.9,7.1,0.5,1.1,2.9C0.8,6.5,2.3,11.8,8.6,13.5
	L8.6,13.5z"/>
</svg>
